Text Analysis
…
map = 
  color_df |>
  leaflet() |>
  addTiles() |>
  addCircleMarkers(as.numeric(color_df$longitude), as.numeric(color_df$latitude), color = color_df$color)

map

color_df |>
  group_by(shape) |>
  summarize(n = n())

## # A tibble: 23 × 2
##    shape        n
##    <chr>    <int>
##  1 changing    81
##  2 chevron     38
##  3 cigar       75
##  4 circle     364
##  5 cone        16
##  6 cross       16
##  7 cylinder    55
##  8 delta        5
##  9 diamond     36
## 10 disk       145
## # ℹ 13 more rows
…
